{
  "name": "ionFullApp",
  "app_id": "",
  "proxies": [
                        {
                          "path": "/iSavviLite/iSavviLiteAPI/api",
                          "proxyUrl": " http://158.140.133.89/iSavviLite/iSavviLiteAPI/api/"
                        }
                      ],
  "gulpStartupTasks": [
    "sass",
    "watch"
  ],
  "watchPatterns": [
    "www/**/*",
    "!www/lib/**/*",
    "scss/**/*"
  ],
  "documentRoot": "www",
  "type": "ionic1",
  "integrations": {
    "cordova": {}
  }
}
